<svg width="13" height="13" viewBox="0 0 13 13" fill="none" xmlns="http://www.w3.org/2000/svg">
<path d="M2.70833 2.16669H4.875L5.95833 4.87502L4.60417 5.68752C5.18427 6.86377 6.13625 7.81575 7.3125 8.39585L8.125 7.04169L10.8333 8.12502V10.2917C10.8333 10.579 10.7192 10.8546 10.516 11.0577C10.3129 11.2609 10.0373 11.375 9.75 11.375C7.6371 11.2466 5.64425 10.3494 4.14745 8.85257C2.65065 7.35577 1.7534 5.36292 1.625 3.25002C1.625 2.9627 1.73914 2.68715 1.9423 2.48399C2.14547 2.28082 2.42102 2.16669 2.70833 2.16669" stroke="#42546A" stroke-width="0.8" stroke-linecap="round" stroke-linejoin="round"/>
<path d="M8.125 3.79169C8.41232 3.79169 8.68787 3.90582 8.89103 4.10899C9.0942 4.31215 9.20833 4.5877 9.20833 4.87502" stroke="#42546A" stroke-width="0.8" stroke-linecap="round" stroke-linejoin="round"/>
<path d="M8.125 1.625C8.98695 1.625 9.8136 1.96741 10.4231 2.5769C11.0326 3.1864 11.375 4.01305 11.375 4.875" stroke="#42546A" stroke-width="0.8" stroke-linecap="round" stroke-linejoin="round"/>
</svg>
